<?xml version="1.0" encoding="UTF-8" standalone="no"?>
<!-- Created with Inkscape (http://www.inkscape.org/) -->

<svg
   xmlns:dc="http://purl.org/dc/elements/1.1/"
   xmlns:cc="http://creativecommons.org/ns#"
   xmlns:rdf="http://www.w3.org/1999/02/22-rdf-syntax-ns#"
   xmlns:svg="http://www.w3.org/2000/svg"
   xmlns="http://www.w3.org/2000/svg"
   xmlns:sodipodi="http://sodipodi.sourceforge.net/DTD/sodipodi-0.dtd"
   xmlns:inkscape="http://www.inkscape.org/namespaces/inkscape"
   width="135.73126mm"
   height="47.624928mm"
   viewBox="0 0 135.73126 47.624928"
   version="1.1"
   id="svg4930"
   inkscape:version="0.92.4 5da689c313, 2019-01-14"
   sodipodi:docname="button_replay.svg"
   inkscape:export-filename="/home/gaethan/Documents/Cours/P3/android/images/button_play.svg.png"
   inkscape:export-xdpi="65"
   inkscape:export-ydpi="65">
  <defs
     id="defs4924" />
  <sodipodi:namedview
     id="base"
     pagecolor="#ffffff"
     bordercolor="#666666"
     borderopacity="1.0"
     inkscape:pageopacity="0.0"
     inkscape:pageshadow="2"
     inkscape:zoom="2"
     inkscape:cx="318.40759"
     inkscape:cy="33.299006"
     inkscape:document-units="mm"
     inkscape:current-layer="layer1"
     showgrid="false"
     fit-margin-top="0"
     fit-margin-left="0"
     fit-margin-right="0"
     fit-margin-bottom="0"
     inkscape:window-width="1920"
     inkscape:window-height="1024"
     inkscape:window-x="0"
     inkscape:window-y="28"
     inkscape:window-maximized="1" />
  <metadata
     id="metadata4927">
    <rdf:RDF>
      <cc:Work
         rdf:about="">
        <dc:format>image/svg+xml</dc:format>
        <dc:type
           rdf:resource="http://purl.org/dc/dcmitype/StillImage" />
        <dc:title />
      </cc:Work>
    </rdf:RDF>
  </metadata>
  <g
     inkscape:label="Calque 1"
     inkscape:groupmode="layer"
     id="layer1"
     transform="translate(19.484682,-72.860153)">
    <rect
       id="rect21-7-0"
       width="133.08542"
       height="2.6458333"
       x="-16.838839"
       y="72.860153"
       style="fill:#ac3b00;fill-opacity:1;stroke-width:0.23234914" />
    <rect
       id="rect21-3-8-8"
       width="133.0854"
       height="2.6458294"
       x="-16.838839"
       y="115.19348"
       style="fill:#ac3b00;fill-opacity:1;stroke-width:0.23234896" />
    <rect
       id="rect21-3-6-25-5"
       width="2.6458333"
       height="44.979168"
       x="-16.838839"
       y="72.860153"
       style="fill:#ac3b00;fill-opacity:1;stroke-width:0.13507704" />
    <rect
       id="rect21-3-6-7-3-3"
       width="2.6458333"
       height="44.979168"
       x="113.60075"
       y="72.860153"
       style="fill:#ac3b00;fill-opacity:1;stroke-width:0.13507704" />
    <rect
       id="rect21-5-4-9"
       width="127.79375"
       height="2.6458261"
       x="-14.192994"
       y="75.505981"
       style="fill:#ffffff;fill-opacity:1;stroke-width:0.22768271" />
    <rect
       id="rect21-5-3-9-4"
       width="127.79375"
       height="2.6458371"
       x="-14.192994"
       y="112.54765"
       style="fill:#ffa072;fill-opacity:1;stroke-width:0.22768319" />
    <rect
       id="rect21-5-3-5-0-15"
       width="2.6458333"
       height="34.39584"
       x="110.95493"
       y="78.15181"
       style="fill:#ffd1bb;fill-opacity:1;stroke-width:0.11812146" />
    <rect
       id="rect21-5-3-5-6-2-4"
       width="2.6458333"
       height="37.041668"
       x="-14.192994"
       y="75.505981"
       style="fill:#ffd1bb;fill-opacity:1;stroke-width:0.12258042" />
    <rect
       style="fill:#ff6f2a;fill-opacity:1;stroke-width:0.44123238"
       id="rect4637-0-1"
       width="122.50208"
       height="34.39584"
       x="-11.547151"
       y="78.15181" />
    <rect
       id="rect21-3-6-2-1-55"
       width="2.6458333"
       height="44.979168"
       x="-19.484682"
       y="75.505905"
       style="fill:#853d00;fill-opacity:1;stroke-width:0.13507704" />
    <rect
       id="rect21-3-9-9-4"
       width="133.08542"
       height="2.6457646"
       x="-19.484682"
       y="117.83932"
       style="fill:#853d00;fill-opacity:1;stroke-width:0.23234612" />
    <path
       style="fill:#000000;fill-opacity:1;stroke:none;stroke-width:19.51240921;stroke-linejoin:round;stroke-miterlimit:4;stroke-dasharray:none;stroke-opacity:1"
       d="m 99.283203,51.259766 v 67.480464 h 9.269527 V 96.246094 h 27.8086 V 85 h -27.8086 V 62.507812 h 27.8086 V 85 h 9.26953 V 51.259766 Z m 37.078127,44.986328 v 22.494136 h 9.26953 V 96.246094 Z m 18.53906,-44.986328 v 67.480464 h 46.34766 V 107.49219 H 164.16992 V 96.246094 h 27.8086 V 85 h -27.8086 V 62.507812 h 37.07813 V 51.259766 Z m 55.61719,0 v 67.480464 h 9.26953 V 96.246094 h 37.07812 V 51.259766 Z m 55.61719,0 v 67.480464 h 46.34765 V 107.49219 H 275.4043 V 51.259766 Z m 55.61718,0 v 67.480464 h 9.26953 v -11.24804 h 27.8086 v 11.24804 h 9.26953 V 51.259766 Z m 55.61719,0 v 44.986328 h 18.53906 v 22.494136 h 9.26953 V 96.246094 H 423.7168 V 51.259766 h -9.26953 V 85 h -27.8086 V 51.259766 Z M 219.78711,62.507812 H 247.5957 V 85 h -27.80859 z m 111.23437,0 h 27.8086 v 33.738282 h -27.8086 z"
       transform="matrix(0.26458333,0,0,0.26458333,-19.484682,72.860153)"
       id="rect828"
       inkscape:connector-curvature="0" />
  </g>
</svg>
