<?xml version="1.0" encoding="UTF-8" standalone="no"?>
<!-- Created with Inkscape (http://www.inkscape.org/) -->

<svg
   xmlns:dc="http://purl.org/dc/elements/1.1/"
   xmlns:cc="http://creativecommons.org/ns#"
   xmlns:rdf="http://www.w3.org/1999/02/22-rdf-syntax-ns#"
   xmlns:svg="http://www.w3.org/2000/svg"
   xmlns="http://www.w3.org/2000/svg"
   xmlns:sodipodi="http://sodipodi.sourceforge.net/DTD/sodipodi-0.dtd"
   xmlns:inkscape="http://www.inkscape.org/namespaces/inkscape"
   width="135.73128mm"
   height="47.624924mm"
   viewBox="0 0 135.73128 47.624924"
   version="1.1"
   id="svg4930"
   inkscape:version="0.92.4 5da689c313, 2019-01-14"
   sodipodi:docname="button_options.svg"
   inkscape:export-filename="/home/gaethan/Documents/Cours/P3/android/images/button_play.svg.png"
   inkscape:export-xdpi="65"
   inkscape:export-ydpi="65">
  <defs
     id="defs4924" />
  <sodipodi:namedview
     id="base"
     pagecolor="#ffffff"
     bordercolor="#666666"
     borderopacity="1.0"
     inkscape:pageopacity="0.0"
     inkscape:pageshadow="2"
     inkscape:zoom="5.6568542"
     inkscape:cx="-20.533942"
     inkscape:cy="147.24481"
     inkscape:document-units="mm"
     inkscape:current-layer="layer1"
     showgrid="false"
     fit-margin-top="0"
     fit-margin-left="0"
     fit-margin-right="0"
     fit-margin-bottom="0"
     inkscape:window-width="1920"
     inkscape:window-height="1024"
     inkscape:window-x="0"
     inkscape:window-y="28"
     inkscape:window-maximized="1" />
  <metadata
     id="metadata4927">
    <rdf:RDF>
      <cc:Work
         rdf:about="">
        <dc:format>image/svg+xml</dc:format>
        <dc:type
           rdf:resource="http://purl.org/dc/dcmitype/StillImage" />
        <dc:title />
      </cc:Work>
    </rdf:RDF>
  </metadata>
  <g
     inkscape:label="Calque 1"
     inkscape:groupmode="layer"
     id="layer1"
     transform="translate(28.348238,92.504463)">
    <rect
       id="rect21-7-0-4"
       width="133.08542"
       height="2.6458333"
       x="-25.702394"
       y="-92.504463"
       style="fill:#ac3b00;fill-opacity:1;stroke-width:0.23234914" />
    <rect
       id="rect21-3-8-8-4"
       width="133.0854"
       height="2.6458294"
       x="-25.702394"
       y="-50.171139"
       style="fill:#ac3b00;fill-opacity:1;stroke-width:0.23234896" />
    <rect
       id="rect21-3-6-25-5-7"
       width="2.6458333"
       height="44.979168"
       x="-25.702394"
       y="-92.504463"
       style="fill:#ac3b00;fill-opacity:1;stroke-width:0.13507704" />
    <rect
       id="rect21-3-6-7-3-3-6"
       width="2.6458333"
       height="44.979168"
       x="104.73721"
       y="-92.504463"
       style="fill:#ac3b00;fill-opacity:1;stroke-width:0.13507704" />
    <rect
       id="rect21-5-4-9-3"
       width="127.79375"
       height="2.6458261"
       x="-23.056549"
       y="-89.858635"
       style="fill:#ffffff;fill-opacity:1;stroke-width:0.22768271" />
    <rect
       id="rect21-5-3-9-4-1"
       width="127.79375"
       height="2.6458371"
       x="-23.056549"
       y="-52.816967"
       style="fill:#ffa072;fill-opacity:1;stroke-width:0.22768319" />
    <rect
       id="rect21-5-3-5-0-15-7"
       width="2.6458333"
       height="34.39584"
       x="102.09138"
       y="-87.212807"
       style="fill:#ffd1bb;fill-opacity:1;stroke-width:0.11812146" />
    <rect
       id="rect21-5-3-5-6-2-4-5"
       width="2.6458333"
       height="37.041668"
       x="-23.056549"
       y="-89.858635"
       style="fill:#ffd1bb;fill-opacity:1;stroke-width:0.12258042" />
    <rect
       style="fill:#ff6f2a;fill-opacity:1;stroke-width:0.44123238"
       id="rect4637-0-1-9"
       width="122.50208"
       height="34.39584"
       x="-20.410706"
       y="-87.212807" />
    <rect
       id="rect21-3-6-2-1-55-6"
       width="2.6458333"
       height="44.979168"
       x="-28.348238"
       y="-89.858711"
       style="fill:#853d00;fill-opacity:1;stroke-width:0.13507704" />
    <path
       style="fill:#000000;fill-opacity:1;stroke:none;stroke-width:5.75143671;stroke-linejoin:round;stroke-miterlimit:4;stroke-dasharray:none;stroke-opacity:1"
       d="m 37.925781,-573.73438 v 67.46876 h 46.359375 v -67.46876 z m 55.63086,0 v 67.46876 h 9.273439 v -22.49024 h 37.08594 v -44.97852 z m 55.632809,0 v 11.24415 h 18.54297 v 56.22461 h 9.27149 v -56.22461 h 18.54492 v -11.24415 z m 55.63086,0 v 11.24415 h 18.54297 v 44.98046 h -18.54297 v 11.24415 h 46.35938 v -11.24415 h -18.54297 v -44.98046 h 18.54297 v -11.24415 z m 55.63086,0 v 67.46876 h 46.35938 v -67.46876 z m 55.63281,0 v 67.46876 h 9.27149 v -56.22461 h 27.81641 v 56.22461 h 9.27148 v -67.46876 z m 55.63086,0 v 44.97852 h 37.08789 v 11.24609 h -37.08789 v 11.24415 h 46.35938 V -540 h -37.08789 v -22.49023 h 37.08789 v -11.24415 z m -324.517574,11.24415 h 27.816406 v 44.98046 H 47.197266 Z m 55.632814,0 h 27.81445 V -540 h -27.81445 z m 166.89453,0 h 27.81445 v 44.98046 h -27.81445 z"
       transform="matrix(0.26458333,0,0,0.26458333,-19.484682,72.860153)"
       id="rect968-2"
       inkscape:connector-curvature="0" />
    <rect
       id="rect21-3-9-9-4-1"
       width="133.08542"
       height="2.6457646"
       x="-28.348238"
       y="-47.525303"
       style="fill:#853d00;fill-opacity:1;stroke-width:0.23234612" />
  </g>
</svg>
