<?xml version="1.0" encoding="UTF-8" standalone="no"?>
<!-- Created with Inkscape (http://www.inkscape.org/) -->

<svg
   xmlns:dc="http://purl.org/dc/elements/1.1/"
   xmlns:cc="http://creativecommons.org/ns#"
   xmlns:rdf="http://www.w3.org/1999/02/22-rdf-syntax-ns#"
   xmlns:svg="http://www.w3.org/2000/svg"
   xmlns="http://www.w3.org/2000/svg"
   xmlns:sodipodi="http://sodipodi.sourceforge.net/DTD/sodipodi-0.dtd"
   xmlns:inkscape="http://www.inkscape.org/namespaces/inkscape"
   width="135.73128mm"
   height="47.624931mm"
   viewBox="0 0 135.73128 47.624932"
   version="1.1"
   id="svg4930"
   inkscape:version="0.92.4 5da689c313, 2019-01-14"
   sodipodi:docname="button_scores.svg"
   inkscape:export-filename="/home/gaethan/Documents/Cours/P3/android/images/button_play.svg.png"
   inkscape:export-xdpi="65"
   inkscape:export-ydpi="65">
  <defs
     id="defs4924" />
  <sodipodi:namedview
     id="base"
     pagecolor="#ffffff"
     bordercolor="#666666"
     borderopacity="1.0"
     inkscape:pageopacity="0.0"
     inkscape:pageshadow="2"
     inkscape:zoom="4"
     inkscape:cx="3.7389487"
     inkscape:cy="149.25276"
     inkscape:document-units="mm"
     inkscape:current-layer="layer1"
     showgrid="false"
     fit-margin-top="0"
     fit-margin-left="0"
     fit-margin-right="0"
     fit-margin-bottom="0"
     inkscape:window-width="1920"
     inkscape:window-height="1024"
     inkscape:window-x="0"
     inkscape:window-y="28"
     inkscape:window-maximized="1" />
  <metadata
     id="metadata4927">
    <rdf:RDF>
      <cc:Work
         rdf:about="">
        <dc:format>image/svg+xml</dc:format>
        <dc:type
           rdf:resource="http://purl.org/dc/dcmitype/StillImage" />
        <dc:title />
      </cc:Work>
    </rdf:RDF>
  </metadata>
  <g
     inkscape:label="Calque 1"
     inkscape:groupmode="layer"
     id="layer1"
     transform="translate(29.671154,7.8378)">
    <rect
       id="rect21-7-0-6"
       width="133.08542"
       height="2.6458333"
       x="-27.025311"
       y="-7.8378"
       style="fill:#ac3b00;fill-opacity:1;stroke-width:0.23234914" />
    <rect
       id="rect21-3-8-8-1"
       width="133.0854"
       height="2.6458294"
       x="-27.025311"
       y="34.495529"
       style="fill:#ac3b00;fill-opacity:1;stroke-width:0.23234896" />
    <rect
       id="rect21-3-6-25-5-1"
       width="2.6458333"
       height="44.979168"
       x="-27.025311"
       y="-7.8378"
       style="fill:#ac3b00;fill-opacity:1;stroke-width:0.13507704" />
    <rect
       id="rect21-3-6-7-3-3-5"
       width="2.6458333"
       height="44.979168"
       x="103.41429"
       y="-7.8378"
       style="fill:#ac3b00;fill-opacity:1;stroke-width:0.13507704" />
    <rect
       id="rect21-5-4-9-9"
       width="127.79375"
       height="2.6458261"
       x="-24.379465"
       y="-5.1919718"
       style="fill:#ffffff;fill-opacity:1;stroke-width:0.22768271" />
    <rect
       id="rect21-5-3-9-4-8"
       width="127.79375"
       height="2.6458371"
       x="-24.379465"
       y="31.849699"
       style="fill:#ffa072;fill-opacity:1;stroke-width:0.22768319" />
    <rect
       id="rect21-5-3-5-0-15-4"
       width="2.6458333"
       height="34.39584"
       x="100.76846"
       y="-2.5461435"
       style="fill:#ffd1bb;fill-opacity:1;stroke-width:0.11812146" />
    <rect
       id="rect21-5-3-5-6-2-4-8"
       width="2.6458333"
       height="37.041668"
       x="-24.379465"
       y="-5.1919718"
       style="fill:#ffd1bb;fill-opacity:1;stroke-width:0.12258042" />
    <rect
       style="fill:#ff6f2a;fill-opacity:1;stroke-width:0.44123238"
       id="rect4637-0-1-1"
       width="122.50208"
       height="34.39584"
       x="-21.733622"
       y="-2.5461435" />
    <rect
       id="rect21-3-6-2-1-55-0"
       width="2.6458333"
       height="44.979168"
       x="-29.671154"
       y="-5.1920481"
       style="fill:#853d00;fill-opacity:1;stroke-width:0.13507704" />
    <path
       style="fill:#000000;fill-opacity:1;stroke:none;stroke-width:5.41234875;stroke-linejoin:round;stroke-miterlimit:4;stroke-dasharray:none;stroke-opacity:1"
       d="m 60.742188,-253.73438 v 44.97852 h 37.08789 v 11.24609 h -37.08789 v 11.24415 H 107.10156 V -220 H 70.013672 v -22.49023 h 37.087888 v -11.24415 z m 55.630862,0 v 67.46876 h 46.35937 v -11.24415 h -37.08789 v -44.98046 h 37.08789 v -11.24415 z m 55.63086,0 v 67.46876 h 46.35937 v -67.46876 z m 55.63281,0 v 67.46876 h 9.27148 v -22.49024 h 27.81641 V -220 H 236.9082 v -22.49023 h 27.81641 V -220 h 9.27148 v -33.73438 z m 37.08789,44.97852 v 22.49024 h 9.27148 v -22.49024 z m 18.54297,-44.97852 v 67.46876 h 46.35937 v -11.24415 h -37.08789 v -11.24609 h 27.81641 V -220 h -27.81641 v -22.49023 h 37.08789 v -11.24415 z m 55.63086,0 v 44.97852 h 37.08789 v 11.24609 h -37.08789 v 11.24415 h 46.35937 V -220 h -37.08593 v -22.49023 h 37.08593 v -11.24415 z m -157.6211,11.24415 h 27.81446 v 44.98046 h -27.81446 z"
       transform="matrix(0.26458333,0,0,0.26458333,-19.484682,72.860153)"
       id="rect968-3"
       inkscape:connector-curvature="0" />
    <rect
       id="rect21-3-9-9-4-0"
       width="133.08542"
       height="2.6457646"
       x="-29.671154"
       y="37.141365"
       style="fill:#853d00;fill-opacity:1;stroke-width:0.23234612" />
  </g>
</svg>
